<svg width="81" height="20" viewBox="0 0 81 20" fill="none" xmlns="http://www.w3.org/2000/svg">
<g clip-path="url(#clip0_126_12044)">
<path d="M6.47228 3.29859C6.47228 2.7622 6.20796 2.35948 5.03986 2.35948C3.86895 2.35948 3.60563 2.76174 3.60563 3.29859V4.75179C3.60563 5.19206 3.75648 5.63226 4.17173 5.99569L8.13056 9.44002C8.69791 9.9182 9.03724 10.5113 9.03724 11.1236V13.3048C9.03724 14.6074 7.527 15.3336 5.0386 15.3336C2.28506 15.3336 0.963939 14.7024 0.964844 13.3048V11.4119H3.45507L3.4538 13.2286C3.4538 13.8801 3.94505 14.2623 5.03823 14.2623C6.05712 14.2623 6.54666 13.8802 6.54666 13.2286V11.2953C6.54666 10.8171 6.35835 10.4528 5.8309 9.97614L2.17068 6.74294C1.4923 6.14835 1.11469 5.68908 1.11469 4.98222V3.31788C1.11469 1.95924 2.51092 1.28909 5.03914 1.28909C7.83068 1.28909 8.96087 1.9596 8.96087 3.2224V4.98311H6.47155L6.47228 3.29859Z" fill="#573885"/>
<path d="M32.9851 12.9376C32.9851 13.7029 33.2856 14.2393 34.8708 14.2393C36.4553 14.2393 36.7575 13.7029 36.7575 12.9376V3.63826C36.7575 2.87421 36.4557 2.33744 34.8717 2.33744C33.2873 2.33744 32.9851 2.87384 32.9851 3.63826V12.9376ZM30.4958 3.60153C30.4958 2.24289 31.5128 1.26798 34.8717 1.26798C38.2288 1.26798 39.2477 2.24289 39.2477 3.60153L39.2468 12.9743C39.2468 14.333 38.2297 15.3097 34.8708 15.3097C31.5138 15.3097 30.4949 14.333 30.4949 12.9743L30.4958 3.60153Z" fill="#573885"/>
<path d="M44.3866 7.88859C45.5186 7.88859 46.3104 7.73557 46.3104 7.02715V3.29638C46.3104 2.58796 45.5186 2.43493 44.3866 2.43493H43.1804V7.88878L44.3866 7.88859ZM40.6902 1.36345H44.6517C47.8586 1.36345 48.8015 1.89855 48.8015 3.46842L48.7988 6.85491C48.7988 8.42378 47.8559 8.95989 44.6517 8.95989H43.1804V15.1784H40.6902V1.36345Z" fill="#573885"/>
<path d="M54.9736 3.29859C54.9736 2.7622 54.7092 2.3604 53.5412 2.3604C52.3703 2.3604 52.106 2.76266 52.106 3.29859V4.75179C52.106 5.19206 52.2569 5.63225 52.6721 5.99569L56.6337 9.44001C57.1985 9.9182 57.5377 10.5113 57.5377 11.1236V13.3057C57.5377 14.6074 56.0302 15.3336 53.54 15.3336C50.7865 15.3336 49.4653 14.7024 49.4653 13.3048V11.411H51.9555V13.2286C51.9555 13.8801 52.4469 14.2623 53.54 14.2623C54.5589 14.2623 55.0484 13.8802 55.0484 13.2286V11.2953C55.0484 10.8171 54.8614 10.4541 54.3314 9.97614L50.673 6.74109C49.9922 6.14778 49.617 5.68815 49.617 4.98129V3.31511C49.617 1.95647 51.0123 1.28725 53.5414 1.28725C56.3321 1.28725 57.4632 1.95647 57.4632 3.22147V4.98129H54.9738L54.9736 3.29859Z" fill="#573885"/>
<path d="M73.3426 3.2986C73.3426 2.76221 73.0783 2.36041 71.9102 2.36041C70.7402 2.36041 70.476 2.76267 70.476 3.2986V4.75362C70.476 5.19261 70.6268 5.63281 71.0421 5.9957L75.0027 9.44187C75.5688 9.92006 75.9068 10.5122 75.9068 11.1245V13.3066C75.9068 14.6084 74.3993 15.3345 71.9099 15.3345C69.1555 15.3345 67.8335 14.7033 67.8335 13.3066V11.4119H70.3246L70.3237 13.2295C70.3237 13.881 70.8151 14.2632 71.9099 14.2632C72.9261 14.2632 73.4175 13.8811 73.4175 13.2295V11.2962C73.4175 10.818 73.2292 10.455 72.7005 9.97705L69.042 6.74202C68.3625 6.15 67.9861 5.69092 67.9861 4.98222V3.31605C67.9861 1.96016 69.3814 1.28819 71.9105 1.28819C74.7011 1.28819 75.8331 1.95988 75.8331 3.22241V4.98222H73.3429L73.3426 3.2986Z" fill="#573885"/>
<path d="M16.7878 1.3708H19.2816L13.8252 18.7118H11.3323L16.7878 1.3708Z" fill="#573885"/>
<path d="M12.8065 12.2032L9.43311 1.46258H11.926L14.0525 8.23469L12.8065 12.2032Z" fill="#573885"/>
<path d="M65.1986 1.3708H67.6915L62.2351 18.721H59.7422L65.1986 1.3708Z" fill="#573885"/>
<path d="M61.3077 12.1114L57.9343 1.3708H60.4273L62.5546 8.14382L61.3077 12.1114Z" fill="#573885"/>
<path d="M29.0037 15.2326H29.0161V3.52809C29.0161 1.9583 28.0724 1.4222 24.8673 1.4222H20.0651L20.0642 15.2381H22.5535L22.5544 15.2326V2.49075H24.6031C25.7342 2.49075 26.5259 2.64507 26.5259 3.35221V15.2311L29.0037 15.2326Z" fill="#573885"/>
<path d="M78.5003 3.0232C78.7348 3.0232 78.9443 3.00676 78.9443 2.72209C78.9443 2.49057 78.7398 2.45008 78.5465 2.45008H78.1686V3.0231L78.5003 3.0232ZM78.1686 4.06603H77.8905V2.21168H78.5876C79.0203 2.21168 79.2347 2.37233 79.2347 2.73797C79.2347 3.07194 79.0277 3.21615 78.7597 3.2503L79.2796 4.06623H78.9703L78.4865 3.26298H78.1685L78.1686 4.06603ZM78.5053 4.4797C79.2223 4.4797 79.7875 3.90915 79.7875 3.1339C79.7875 2.37232 79.2226 1.7982 78.5053 1.7982C77.7771 1.7982 77.2122 2.37251 77.2122 3.1339C77.2122 3.90933 77.7771 4.4797 78.5053 4.4797ZM76.8928 3.1339C76.8928 2.21131 77.631 1.53016 78.5053 1.53016C79.3682 1.53016 80.1051 2.21204 80.1051 3.1339C80.1051 4.06659 79.3682 4.74775 78.5053 4.74775C77.6312 4.74775 76.8928 4.06585 76.8928 3.1339" fill="#573885"/>
</g>
<defs>
<clipPath id="clip0_126_12044">
<rect width="80" height="18.3784" fill="white" transform="translate(0.5 0.81081)"/>
</clipPath>
</defs>
</svg>
