<svg width="66" height="20" viewBox="0 0 66 20" fill="none" xmlns="http://www.w3.org/2000/svg">
<g clip-path="url(#clip0_103_2553)">
<path d="M26.5299 0.255005H23.4349V19.7383H26.5299V0.255005Z" fill="#2279BC"/>
<path d="M43.2633 3.02997C42.349 2.14348 41.2636 1.45275 40.0733 0.99997C38.7501 0.50195 37.3471 0.249484 35.9333 0.25497H28.965V19.755H35.9333C37.3479 19.7588 38.7511 19.5029 40.0733 19C41.2634 18.5609 42.3496 17.8799 43.2633 17C44.1534 16.1258 44.8516 15.0757 45.3133 13.9166C45.8053 12.67 46.0514 11.3401 46.0383 9.99997C46.0481 8.66883 45.8019 7.34822 45.3133 6.10997C44.8489 4.95333 44.151 3.90485 43.2633 3.02997ZM42.9433 10.03C42.9433 14.1966 40.0583 17.0933 35.9433 17.0933H32V2.92664H35.955C40.1216 2.92664 42.955 5.77664 42.955 10.0066L42.9433 10.03Z" fill="#2279BC"/>
<path d="M63.7716 13.895V13.92C63.0547 14.8908 62.1196 15.6793 61.0417 16.2219C59.9637 16.7645 58.7733 17.0459 57.5666 17.0433C55.7865 17.099 54.0571 16.4457 52.7586 15.2268C51.46 14.008 50.6986 12.3234 50.6416 10.5433C50.6416 10.395 50.6416 10.245 50.6416 10.0967C50.6432 6.06 53.6166 3 57.5816 3C58.7696 3.01446 59.9377 3.30744 60.9919 3.85539C62.0461 4.40334 62.9571 5.19098 63.6516 6.155L65.8182 4.2C64.9477 2.92543 63.7674 1.8931 62.3882 1.2C60.8768 0.418425 59.2014 0.00712985 57.4999 2.74915e-07C54.868 -0.0259288 52.3309 0.981145 50.4332 2.805C49.5035 3.71349 48.7666 4.80016 48.2666 6C47.73 7.29816 47.458 8.69036 47.4666 10.095C47.4549 11.4839 47.7219 12.861 48.2516 14.145C48.7432 15.3218 49.4716 16.3849 50.3916 17.2683C52.2905 19.0585 54.8121 20.0384 57.4216 20C59.1589 20.0048 60.8726 19.5969 62.4216 18.81C63.8076 18.0987 65.0066 17.0709 65.9216 15.81L63.7716 13.895Z" fill="#2279BC"/>
<path d="M3.68165 17.8433C4.64261 18.6446 5.74251 19.2626 6.92665 19.6667C6.98047 19.684 7.03677 19.6925 7.09331 19.6917H13.305C13.3615 19.6919 13.4177 19.6835 13.4716 19.6667C14.3015 19.3796 15.0913 18.9875 15.8216 18.5C15.8637 18.4718 15.893 18.4283 15.9032 18.3787C15.9135 18.3292 15.904 18.2776 15.8766 18.235C15.8588 18.2074 15.834 18.185 15.8047 18.1701C15.7755 18.1552 15.7428 18.1483 15.71 18.15H9.66665C9.43313 18.1489 9.20368 18.0888 8.99968 17.9751C8.79568 17.8615 8.62377 17.698 8.49998 17.5C8.47531 17.4657 8.4431 17.4375 8.40583 17.4175C8.36856 17.3976 8.32722 17.3865 8.28498 17.385H3.84165C3.77534 17.385 3.71176 17.4113 3.66487 17.4582C3.61799 17.5051 3.59165 17.5687 3.59165 17.635C3.5906 17.6723 3.59818 17.7092 3.6138 17.7431C3.62941 17.7769 3.65263 17.8066 3.68165 17.83V17.8433Z" fill="#2279BC"/>
<path d="M16.7099 2.15506C15.7688 1.37534 14.6966 0.76923 13.5432 0.365059C13.4355 0.330223 13.3231 0.311685 13.2099 0.310059H7.16656C7.05333 0.311685 6.94098 0.330223 6.83323 0.365059C6.03569 0.649306 5.2761 1.0305 4.57156 1.50006C4.53812 1.52062 4.51231 1.55155 4.49808 1.58814C4.48385 1.62473 4.48197 1.66497 4.49273 1.70273C4.50349 1.74048 4.5263 1.77369 4.55769 1.79728C4.58907 1.82087 4.6273 1.83355 4.66656 1.83339H10.7316C10.9684 1.8355 11.2008 1.89778 11.4069 2.01441C11.613 2.13103 11.7861 2.29815 11.9099 2.50006C11.9344 2.53456 11.9666 2.5629 12.0039 2.58286C12.0412 2.60282 12.0826 2.61384 12.1249 2.61506H16.5449C16.598 2.61425 16.6496 2.59732 16.6928 2.56651C16.736 2.5357 16.7689 2.49247 16.7869 2.44256C16.805 2.39265 16.8075 2.33842 16.794 2.28707C16.7806 2.23572 16.7518 2.18968 16.7116 2.15506H16.7099Z" fill="#2279BC"/>
<path d="M20.385 9.59998C20.3798 9.50138 20.337 9.40851 20.2654 9.34058C20.1937 9.27265 20.0987 9.23484 20 9.23498H16.06C15.9621 9.23672 15.8658 9.2097 15.7832 9.15726C15.7005 9.10482 15.6351 9.02927 15.595 8.93998C15.5629 8.87576 15.5137 8.82168 15.4528 8.78373C15.3919 8.74578 15.3217 8.72544 15.25 8.72498H0.541622C0.414051 8.72475 0.291218 8.77329 0.198266 8.86066C0.105315 8.94804 0.0492759 9.06764 0.0416219 9.19498C0.00771543 9.4619 -0.00621218 9.73098 -4.47937e-05 9.99998V10.4C0.00257581 10.4986 0.0439255 10.5921 0.115049 10.6605C0.186173 10.7288 0.281345 10.7663 0.379955 10.765H4.33329C4.43032 10.7642 4.52548 10.7917 4.60716 10.8441C4.68884 10.8965 4.75351 10.9715 4.79329 11.06C4.826 11.1247 4.87605 11.1791 4.93784 11.217C4.99964 11.255 5.07076 11.2751 5.14329 11.275H19.85C19.9775 11.2752 20.1004 11.2267 20.1933 11.1393C20.2863 11.0519 20.3423 10.9323 20.35 10.805C20.35 10.54 20.38 10.27 20.38 9.99998C20.39 9.86688 20.3916 9.73329 20.385 9.59998Z" fill="#2279BC"/>
<path d="M13.645 6.17504C13.8595 6.17433 14.0706 6.22809 14.2586 6.33128C14.4467 6.43448 14.6054 6.58373 14.72 6.76504C14.7571 6.81854 14.8071 6.86185 14.8654 6.89097C14.9236 6.9201 14.9882 6.93411 15.0533 6.93171H19.3983C19.4987 6.9291 19.5941 6.88739 19.6641 6.81547C19.7342 6.74355 19.7734 6.64711 19.7733 6.54671C19.7783 6.50854 19.7783 6.46988 19.7733 6.43171C19.5382 5.80654 19.2435 5.20544 18.8933 4.63671C18.848 4.56227 18.784 4.50096 18.7077 4.45886C18.6314 4.41676 18.5455 4.39534 18.4583 4.39671H1.95833C1.86796 4.39044 1.77758 4.40883 1.69686 4.44993C1.61613 4.49102 1.54809 4.55328 1.49999 4.63004C1.28056 4.98231 1.08351 5.34803 0.909992 5.72504C0.892216 5.76246 0.881995 5.80302 0.879914 5.84439C0.877834 5.88577 0.883935 5.92714 0.897868 5.96616C0.911801 6.00517 0.933293 6.04105 0.961113 6.07175C0.988932 6.10244 1.02253 6.12735 1.05999 6.14504C1.1022 6.16497 1.14832 6.17522 1.19499 6.17504H13.645Z" fill="#2279BC"/>
<path d="M6.73161 13.8333C6.51785 13.8324 6.30787 13.777 6.12151 13.6723C5.93516 13.5676 5.77858 13.4171 5.66661 13.235C5.63057 13.1824 5.58198 13.1396 5.52523 13.1105C5.46848 13.0814 5.40537 13.0669 5.34161 13.0683H0.999938C0.899155 13.0683 0.802501 13.1084 0.731237 13.1796C0.659973 13.2509 0.619938 13.3476 0.619938 13.4483C0.618352 13.4946 0.626884 13.5407 0.644938 13.5833C0.87255 14.2047 1.15884 14.803 1.49994 15.37C1.54481 15.4437 1.60799 15.5046 1.68334 15.5466C1.75869 15.5887 1.84365 15.6105 1.92994 15.61H18.4299C18.5171 15.6114 18.6031 15.59 18.6794 15.5479C18.7557 15.5058 18.8196 15.4444 18.8649 15.37C19.0844 15.0177 19.2814 14.652 19.4549 14.275C19.4717 14.2365 19.4807 14.1951 19.4815 14.1531C19.4822 14.1111 19.4745 14.0693 19.4591 14.0303C19.4436 13.9913 19.4205 13.9557 19.3912 13.9256C19.3619 13.8955 19.3269 13.8715 19.2883 13.855C19.2499 13.8385 19.2083 13.8311 19.1666 13.8333H6.73161Z" fill="#2279BC"/>
</g>
<defs>
<clipPath id="clip0_103_2553">
<rect width="65.9217" height="20" fill="white"/>
</clipPath>
</defs>
</svg>
