<?xml version="1.0" encoding="UTF-8" standalone="no"?>
<!DOCTYPE svg PUBLIC "-//W3C//DTD SVG 1.1//EN" "http://www.w3.org/Graphics/SVG/1.1/DTD/svg11.dtd">
<svg width="100%" height="100%" viewBox="0 0 359 88" version="1.1" xmlns="http://www.w3.org/2000/svg" xmlns:xlink="http://www.w3.org/1999/xlink" xml:space="preserve" xmlns:serif="http://www.serif.com/" style="fill-rule:evenodd;clip-rule:evenodd;stroke-linejoin:round;stroke-miterlimit:2;">
    <g transform="matrix(4.16667,0,0,4.16667,0,0)">
        <path d="M48.426,7.024L47.185,7.024C47.139,7.024 47.093,7.07 47.047,7.116L46.129,8.632L44.199,5.324C44.153,5.278 44.107,5.232 44.061,5.232L42.545,5.232C42.498,5.232 42.407,5.278 42.407,5.324C42.361,5.37 42.361,5.462 42.407,5.507L45.118,10.148L45.118,13.548C45.118,13.64 45.21,13.732 45.301,13.732L46.634,13.732C46.726,13.732 46.818,13.64 46.818,13.548L46.818,10.24L48.61,7.299C48.656,7.254 48.656,7.162 48.61,7.116C48.564,7.07 48.518,7.024 48.426,7.024Z" style="fill:rgb(35,31,32);fill-rule:nonzero;"/>
        <path d="M54.813,5.186L48.288,5.186C48.242,5.186 48.196,5.232 48.15,5.278L47.553,6.288C47.507,6.334 47.507,6.426 47.553,6.472C47.599,6.518 47.645,6.564 47.691,6.564L50.31,6.564L50.31,13.548C50.31,13.64 50.402,13.732 50.494,13.732L51.826,13.732C51.918,13.732 52.01,13.64 52.01,13.548L52.01,6.518L54.445,6.518C54.491,6.518 54.583,6.472 54.583,6.426L54.996,5.415L54.996,5.278C54.905,5.232 54.859,5.186 54.813,5.186Z" style="fill:rgb(35,31,32);fill-rule:nonzero;"/>
        <path d="M35.744,13.365L31.655,9.229L35.377,5.462C35.422,5.415 35.422,5.324 35.422,5.278C35.377,5.232 35.331,5.186 35.285,5.186L33.63,5.186C33.585,5.186 33.539,5.186 33.493,5.232L29.909,9.137L29.909,5.324C29.909,5.232 29.817,5.14 29.725,5.14L28.392,5.14C28.3,5.14 28.209,5.232 28.209,5.324L28.209,13.456C28.209,13.548 28.3,13.64 28.392,13.64L29.725,13.64C29.817,13.64 29.909,13.548 29.909,13.456L29.909,9.643L33.676,13.594C33.723,13.64 33.768,13.64 33.814,13.64L35.744,13.64C35.836,13.64 35.928,13.548 35.928,13.456C35.836,13.456 35.79,13.411 35.744,13.365Z" style="fill:rgb(35,31,32);fill-rule:nonzero;"/>
        <path d="M77.603,6.243C77.19,5.875 76.684,5.553 76.087,5.37C75.49,5.186 74.846,5.048 74.111,5.048C73.514,5.048 73.008,5.094 72.595,5.14C72.181,5.186 71.768,5.232 71.4,5.324C71.308,5.324 71.262,5.415 71.262,5.507L71.262,13.365C71.262,13.456 71.308,13.503 71.4,13.548C71.722,13.64 72.135,13.732 72.595,13.778C73.054,13.824 73.56,13.87 74.111,13.87C74.846,13.87 75.49,13.778 76.087,13.548C76.684,13.319 77.19,13.043 77.603,12.629C78.017,12.262 78.338,11.802 78.568,11.251C78.798,10.7 78.89,10.102 78.89,9.459C78.89,8.77 78.798,8.172 78.568,7.621C78.338,7.116 78.017,6.656 77.603,6.243ZM76.914,10.654C76.776,11.021 76.592,11.343 76.317,11.664C76.041,11.94 75.765,12.17 75.352,12.354C74.984,12.537 74.525,12.629 74.065,12.629C73.835,12.629 73.56,12.629 73.33,12.583C73.146,12.537 73.008,12.537 72.87,12.492L72.87,6.334L73.744,6.334C74.295,6.334 74.754,6.426 75.214,6.564C75.627,6.702 75.995,6.932 76.271,7.207C76.546,7.483 76.776,7.805 76.914,8.218C77.052,8.586 77.144,9.046 77.144,9.505C77.144,9.919 77.052,10.286 76.914,10.654Z" style="fill:rgb(35,31,32);fill-rule:nonzero;"/>
        <path d="M41.901,12.354L38.271,12.354L38.271,10.01L40.615,10.01C40.661,10.01 40.753,9.964 40.753,9.919L41.166,8.999L41.166,8.862C41.12,8.816 41.074,8.77 41.028,8.77L38.271,8.77L38.271,6.472L41.212,6.472C41.258,6.472 41.35,6.426 41.35,6.381L41.763,5.462C41.809,5.415 41.763,5.37 41.763,5.324C41.717,5.278 41.672,5.232 41.626,5.232L36.755,5.232C36.663,5.232 36.571,5.324 36.571,5.415L36.571,13.548C36.571,13.64 36.663,13.732 36.755,13.732L41.304,13.732C41.35,13.732 41.396,13.686 41.442,13.64L41.993,12.675C42.039,12.629 42.039,12.583 41.993,12.492C41.993,12.4 41.947,12.354 41.901,12.354Z" style="fill:rgb(35,31,32);fill-rule:nonzero;"/>
        <path d="M67.127,5.278C67.081,5.232 67.035,5.186 66.989,5.186L65.565,5.186C65.519,5.186 65.473,5.232 65.427,5.278C65.381,5.324 65.381,5.37 65.427,5.415L65.703,6.013L62.578,13.456L62.578,13.594C62.624,13.64 62.67,13.686 62.716,13.686L63.956,13.686C64.002,13.686 64.094,13.64 64.094,13.594L64.829,11.802L67.862,11.802L68.597,13.594C68.643,13.64 68.689,13.686 68.735,13.686L70.205,13.686C70.297,13.686 70.389,13.594 70.389,13.503C70.389,13.456 70.389,13.411 70.343,13.411L67.127,5.278ZM65.335,10.516L66.346,7.897L67.357,10.516L65.335,10.516Z" style="fill:rgb(35,31,32);fill-rule:nonzero;"/>
        <path d="M85.047,12.354L81.417,12.354L81.417,10.01L83.76,10.01C83.806,10.01 83.898,9.964 83.898,9.919L84.312,8.999C84.358,8.953 84.312,8.908 84.312,8.862C84.266,8.816 84.22,8.77 84.174,8.77L81.417,8.77L81.417,6.472L84.358,6.472C84.403,6.472 84.495,6.426 84.495,6.381L84.909,5.462C84.955,5.415 84.909,5.37 84.909,5.324C84.863,5.278 84.817,5.232 84.771,5.232L79.901,5.232C79.809,5.232 79.717,5.324 79.717,5.415L79.717,13.548C79.717,13.64 79.809,13.732 79.901,13.732L84.449,13.732C84.495,13.732 84.541,13.686 84.587,13.64L85.139,12.675C85.185,12.629 85.185,12.537 85.139,12.492C85.185,12.4 85.139,12.354 85.047,12.354Z" style="fill:rgb(35,31,32);fill-rule:nonzero;"/>
        <path d="M62.624,13.365L59.729,9.872C59.867,9.827 59.959,9.735 60.097,9.689C60.327,9.551 60.51,9.367 60.74,9.183C60.924,8.999 61.108,8.724 61.245,8.494C61.383,8.218 61.429,7.897 61.429,7.575C61.429,7.162 61.338,6.794 61.154,6.472C60.97,6.151 60.74,5.921 60.418,5.691C60.143,5.507 59.775,5.324 59.362,5.232C58.948,5.14 58.535,5.094 58.075,5.094C57.524,5.094 57.018,5.14 56.651,5.186C56.283,5.232 55.915,5.278 55.548,5.37C55.456,5.37 55.41,5.462 55.41,5.553L55.41,13.594C55.41,13.686 55.502,13.778 55.594,13.778L56.926,13.778C57.018,13.778 57.11,13.686 57.11,13.594L57.11,10.47L58.167,10.47L60.74,13.686C60.786,13.732 60.832,13.732 60.878,13.732L62.532,13.732C62.624,13.732 62.716,13.64 62.716,13.548C62.716,13.456 62.67,13.411 62.624,13.365ZM59.408,8.632C59.316,8.77 59.178,8.862 59.04,8.953C58.902,9.046 58.81,9.091 58.718,9.137L57.11,9.137L57.11,6.288L57.707,6.288C58.443,6.288 58.948,6.381 59.316,6.61C59.637,6.794 59.775,7.162 59.775,7.621C59.775,7.805 59.729,7.989 59.683,8.127C59.591,8.356 59.499,8.494 59.408,8.632Z" style="fill:rgb(35,31,32);fill-rule:nonzero;"/>
        <path d="M30.46,18.097" style="fill:rgb(14,183,218);fill-rule:nonzero;"/>
        <path d="M30.92,17.5" style="fill:rgb(14,183,218);fill-rule:nonzero;"/>
        <path d="M30.782,17.546C30.828,17.546 30.874,17.5 30.874,17.5C30.965,17.454 31.057,17.362 31.149,17.316C31.241,17.224 31.333,17.132 31.379,17.04C31.425,16.949 31.471,16.811 31.471,16.627C31.471,16.489 31.425,16.305 31.333,16.213C31.241,16.076 31.103,15.984 30.965,15.892C30.828,15.8 30.598,15.754 30.414,15.708C30.184,15.662 29.955,15.616 29.725,15.616C29.403,15.616 29.128,15.616 28.898,15.662C28.622,15.662 28.438,15.708 28.255,15.754C28.209,15.754 28.209,15.8 28.209,15.8L28.209,19.614C28.209,19.66 28.209,19.66 28.255,19.66C28.3,19.66 28.392,19.705 28.53,19.705C28.622,19.705 28.76,19.751 28.898,19.751C29.036,19.751 29.173,19.797 29.357,19.797L29.817,19.797C30.092,19.797 30.322,19.751 30.552,19.705C30.782,19.66 30.965,19.568 31.149,19.476C31.333,19.384 31.471,19.246 31.563,19.108C31.655,18.97 31.701,18.787 31.701,18.603C31.701,18.327 31.609,18.097 31.425,17.868C31.241,17.73 31.057,17.638 30.782,17.546ZM30.322,16.305C30.506,16.397 30.598,16.535 30.598,16.719C30.598,16.903 30.552,16.995 30.46,17.132C30.368,17.224 30.276,17.316 30.139,17.408L29.082,17.408L29.082,16.167L29.495,16.167C29.863,16.167 30.139,16.213 30.322,16.305ZM29.082,17.913L29.633,17.913C30.001,17.913 30.23,17.959 30.46,18.051C30.552,18.097 30.644,18.143 30.69,18.235C30.736,18.327 30.782,18.419 30.782,18.511C30.782,18.741 30.69,18.878 30.506,19.016C30.322,19.154 30.047,19.2 29.725,19.2C29.541,19.2 29.357,19.2 29.265,19.154C29.173,19.154 29.128,19.108 29.082,19.108L29.082,17.913Z" style="fill:rgb(14,183,218);fill-rule:nonzero;"/>
        <path d="M34.366,15.662L34.32,15.616L33.493,15.616C33.493,15.616 33.447,15.616 33.447,15.662L33.447,15.708L33.585,16.03L31.838,19.614L31.838,19.66L31.884,19.705L32.62,19.705C32.666,19.705 32.666,19.705 32.666,19.66L33.079,18.787L34.871,18.787L35.285,19.66L35.331,19.705L36.158,19.705C36.158,19.705 36.204,19.705 36.204,19.66L36.204,19.614L34.366,15.662ZM33.952,16.857L34.595,18.189L33.355,18.189L33.952,16.857Z" style="fill:rgb(14,183,218);fill-rule:nonzero;"/>
        <path d="M40.753,15.662L40.063,15.662L40.063,18.281L37.352,15.662L36.341,15.662C36.296,15.662 36.296,15.662 36.296,15.708L36.296,15.754L36.801,16.213L36.801,19.705L37.536,19.705L37.536,16.995L40.385,19.705L40.844,19.705L40.844,15.708L40.753,15.662Z" style="fill:rgb(14,183,218);fill-rule:nonzero;"/>
        <path d="M45.853,19.614L43.463,17.592L45.577,15.754C45.577,15.754 45.623,15.708 45.577,15.708C45.577,15.662 45.531,15.662 45.531,15.662L44.52,15.662L42.407,17.638L42.407,15.662L41.534,15.662L41.534,19.705L42.407,19.705L42.407,17.73L44.612,19.705L45.761,19.705C45.807,19.705 45.807,19.705 45.807,19.66C45.899,19.66 45.899,19.614 45.853,19.614Z" style="fill:rgb(14,183,218);fill-rule:nonzero;"/>
        <path d="M13.459,4.589C13.781,4.589 14.011,4.313 13.964,3.991L13.413,0.912C13.367,0.591 13.046,0.315 12.678,0.315L12.173,0.315C11.851,0.315 11.529,0.591 11.437,0.912L10.886,3.991C10.84,4.313 11.07,4.589 11.391,4.589L13.459,4.589Z" style="fill:rgb(14,183,218);fill-rule:nonzero;"/>
        <path d="M13.643,6.518C13.459,6.243 13.046,6.013 12.724,6.013L12.219,6.013C11.897,6.013 11.437,6.243 11.299,6.518L3.672,18.97C3.488,19.246 3.58,19.66 3.81,19.889L4.591,20.486C4.867,20.716 5.234,20.67 5.418,20.395L12.081,11.113C12.265,10.838 12.586,10.838 12.816,11.113L19.478,20.395C19.662,20.67 20.03,20.716 20.306,20.486L21.087,19.889C21.362,19.66 21.408,19.246 21.224,18.97L13.643,6.518Z" style="fill:rgb(14,183,218);fill-rule:nonzero;"/>
        <path d="M9.232,6.105C9.416,5.829 9.278,5.507 8.956,5.462L1.421,4.083C1.053,4.037 0.685,4.267 0.548,4.542L0.18,5.37C0.042,5.691 0.226,6.013 0.548,6.151L7.164,8.402C7.486,8.494 7.9,8.356 8.083,8.08L9.232,6.105Z" style="fill:rgb(14,183,218);fill-rule:nonzero;"/>
        <path d="M16.859,8.08C17.043,8.356 17.457,8.54 17.778,8.402L24.395,6.197C24.716,6.105 24.9,5.737 24.762,5.415L24.395,4.589C24.257,4.267 23.843,4.083 23.522,4.129L15.986,5.507C15.665,5.553 15.527,5.875 15.711,6.151L16.859,8.08Z" style="fill:rgb(14,183,218);fill-rule:nonzero;"/>
    </g>
</svg>
